vhdl work "C:\Users\Brito\Documents\Repositorio\MultiplicadorVHDL\Code\Emissor\Emissor\single_shot.vhd"
vhdl work "C:\Users\Brito\Documents\Repositorio\MultiplicadorVHDL\Code\Emissor\Emissor\pkg_bcd_numbers.vhd"
vhdl work "C:\Users\Brito\Documents\Repositorio\MultiplicadorVHDL\Code\Multiplicador\Multiplicador\separar.vhd"
vhdl work "C:\Users\Brito\Documents\Repositorio\MultiplicadorVHDL\Code\Multiplicador\Multiplicador\Multiplicador_Assincrono.vhd"
vhdl work "C:\Users\Brito\Documents\Repositorio\MultiplicadorVHDL\Code\Multiplicador\Multiplicador\input_buffer.vhd"
vhdl work "C:\Users\Brito\Documents\Repositorio\MultiplicadorVHDL\Code\Multiplicador\Multiplicador\fsm_receptor.vhd"
vhdl work "C:\Users\Brito\Documents\Repositorio\MultiplicadorVHDL\Code\Multiplicador\Multiplicador\clk_1k.vhd"
vhdl work "C:\Users\Brito\Documents\Repositorio\MultiplicadorVHDL\Code\Multiplicador\Multiplicador\bcd_7s.vhd"
vhdl work "C:\Users\Brito\Documents\Repositorio\MultiplicadorVHDL\Code\Emissor\Emissor\processa_operando.vhd"
vhdl work "C:\Users\Brito\Documents\Repositorio\MultiplicadorVHDL\Code\Emissor\Emissor\out_buffer.vhd"
vhdl work "C:\Users\Brito\Documents\Repositorio\MultiplicadorVHDL\Code\Emissor\Emissor\gerador_clk_500k.vhd"
vhdl work "C:\Users\Brito\Documents\Repositorio\MultiplicadorVHDL\Code\Emissor\Emissor\gerador_clk_1k.vhd"
vhdl work "C:\Users\Brito\Documents\Repositorio\MultiplicadorVHDL\Code\Emissor\Emissor\fsm_envio.vhd"
vhdl work "C:\Users\Brito\Documents\Repositorio\MultiplicadorVHDL\Code\Emissor\Emissor\fsm_display.vhd"
vhdl work "C:\Users\Brito\Documents\Repositorio\MultiplicadorVHDL\Code\Multiplicador\Multiplicador\Multiplicador.vhd"
vhdl work "C:\Users\Brito\Documents\Repositorio\MultiplicadorVHDL\Code\Emissor\Emissor\Emissor.vhd"
vhdl work "C:\Users\Brito\Documents\Repositorio\MultiplicadorVHDL\Code\Comunicacao\Comunicacao\Comunicacao.vhd"
