AR input_bit input_bit C:/Users/Brito/Documents/Repositorio/MultiplicadorVHDL/Code/Multiplicador/Multiplicador/input_bit.vhd sub00/vhpl14 1448370740
EN clk_1k NULL C:/Users/Brito/Documents/Repositorio/MultiplicadorVHDL/Code/Multiplicador/Multiplicador/clk_1k.vhd sub00/vhpl03 1448630281
PH pkg_bcd_numbers NULL C:/Users/Brito/Documents/Repositorio/MultiplicadorVHDL/Code/Multiplicador/Multiplicador/pkg_bcd_numbers.vhd sub00/vhpl05 1448630278
EN multiplicador NULL C:/Users/Brito/Documents/Repositorio/MultiplicadorVHDL/Code/Multiplicador/Multiplicador/Multiplicador.vhd sub00/vhpl00 1448630291
AR multiplicador multiplicador C:/Users/Brito/Documents/Repositorio/MultiplicadorVHDL/Code/Multiplicador/Multiplicador/Multiplicador.vhd sub00/vhpl10 1448630292
AR input_buffer input_buffer C:/Users/Brito/Documents/Repositorio/MultiplicadorVHDL/Code/Multiplicador/Multiplicador/input_buffer.vhd sub00/vhpl12 1448630288
EN single_shot NULL C:/Users/Brito/Documents/Repositorio/MultiplicadorVHDL/Code/Multiplicador/Multiplicador/single_shot.vhd sub00/vhpl17 1448630276
EN fsm_receptor NULL C:/Users/Brito/Documents/Repositorio/MultiplicadorVHDL/Code/Multiplicador/Multiplicador/fsm_receptor.vhd sub00/vhpl15 1448630289
EN multiplicador_assincrono NULL C:/Users/Brito/Documents/Repositorio/MultiplicadorVHDL/Code/Multiplicador/Multiplicador/Multiplicador_Assincrono.vhd sub00/vhpl01 1448630285
EN input_bit NULL C:/Users/Brito/Documents/Repositorio/MultiplicadorVHDL/Code/Multiplicador/Multiplicador/input_bit.vhd sub00/vhpl13 1448370739
EN bcd_7s NULL C:/Users/Brito/Documents/Repositorio/MultiplicadorVHDL/Code/Multiplicador/Multiplicador/bcd_7s.vhd sub00/vhpl06 1448630279
AR clk_1k clk_1k C:/Users/Brito/Documents/Repositorio/MultiplicadorVHDL/Code/Multiplicador/Multiplicador/clk_1k.vhd sub00/vhpl04 1448630282
AR multiplicador_assincrono multiplicador_assincrono C:/Users/Brito/Documents/Repositorio/MultiplicadorVHDL/Code/Multiplicador/Multiplicador/Multiplicador_Assincrono.vhd sub00/vhpl02 1448630286
AR fsm_receptor fsm_receptor C:/Users/Brito/Documents/Repositorio/MultiplicadorVHDL/Code/Multiplicador/Multiplicador/fsm_receptor.vhd sub00/vhpl16 1448630290
AR bcd_7s funcionalidade C:/Users/Brito/Documents/Repositorio/MultiplicadorVHDL/Code/Multiplicador/Multiplicador/bcd_7s.vhd sub00/vhpl07 1448630280
EN input_buffer NULL C:/Users/Brito/Documents/Repositorio/MultiplicadorVHDL/Code/Multiplicador/Multiplicador/input_buffer.vhd sub00/vhpl11 1448630287
AR separar separar C:/Users/Brito/Documents/Repositorio/MultiplicadorVHDL/Code/Multiplicador/Multiplicador/separar.vhd sub00/vhpl09 1448630284
AR single_shot single_shot C:/Users/Brito/Documents/Repositorio/MultiplicadorVHDL/Code/Multiplicador/Multiplicador/single_shot.vhd sub00/vhpl18 1448630277
EN separar NULL C:/Users/Brito/Documents/Repositorio/MultiplicadorVHDL/Code/Multiplicador/Multiplicador/separar.vhd sub00/vhpl08 1448630283
